{
    "count": 200,
    "next": "https://cryptopanic.com/api/v1/posts/?auth_token=12b5b6168390d9c380631274b6f2e47427ae15bf&public=true&page=2",
    "previous": null,
    "results": [
    {
    "kind": "news",
    "domain": "en.bitcoinsistemi.com",
    "source": {
    "title": "en bitcoinsistemi",
    "region": "en",
    "domain": "en.bitcoinsistemi.com",
    "path": null
    },
    "title": "Chainlink (LINK) Just Experienced Over One Hundred Million Dollar Token Unlock – But This Time It’s Different",
    "published_at": "2023-12-16T23:30:06Z",
    "slug": "Chainlink-LINK-Just-Experienced-Over-One-Hundred-Million-Dollar-Token-Unlock-But-This-Time-Its-Different",
    "currencies": [
    {
    "code": "LINK",
    "title": "Chainlink",
    "slug": "chainlink",
    "url": "https://cryptopanic.com/news/chainlink/"
    }
    ],
    "id": 19114520,
    "url": "https://cryptopanic.com/news/19114520/Chainlink-LINK-Just-Experienced-Over-One-Hundred-Million-Dollar-Token-Unlock-But-This-Time-Its-Different",
    "created_at": "2023-12-16T23:30:06Z",
    "votes": {
    "negative": 0,
    "positive": 0,
    "important": 0,
    "liked": 0,
    "disliked": 0,
    "lol": 0,
    "toxic": 0,
    "saved": 0,
    "comments": 0
    }
    },
    {
    "kind": "news",
    "domain": "cryptopolitan.com",
    "source": {
    "title": "Feed - Cryptopolitan.Com",
    "region": "en",
    "domain": "cryptopolitan.com",
    "path": null
    },
    "title": "Assassin’s Creed Fans Can Enjoy Middle-Earth: Shadow of War on PS Plus Extra",
    "published_at": "2023-12-16T23:05:00Z",
    "slug": "Assassins-Creed-Fans-Can-Enjoy-Middle-Earth-Shadow-of-War-on-PS-Plus-Extra",
    "id": 19114504,
    "url": "https://cryptopanic.com/news/19114504/Assassins-Creed-Fans-Can-Enjoy-Middle-Earth-Shadow-of-War-on-PS-Plus-Extra",
    "created_at": "2023-12-16T23:05:00Z",
    "votes": {
    "negative": 0,
    "positive": 0,
    "important": 0,
    "liked": 0,
    "disliked": 0,
    "lol": 0,
    "toxic": 0,
    "saved": 0,
    "comments": 0
    }
    },
    {
    "kind": "news",
    "domain": "dailycoin.com",
    "votes": {
    "negative": 1,
    "positive": 0,
    "important": 1,
    "liked": 1,
    "disliked": 0,
    "lol": 1,
    "toxic": 0,
    "saved": 0,
    "comments": 0
    },
    "source": {
    "title": "Dailycoin",
    "region": "en",
    "domain": "dailycoin.com",
    "path": null
    },
    "title": "Tether Welcomes FBI, Secret Service in Fight Against Crime",
    "published_at": "2023-12-16T22:50:00Z",
    "slug": "Tether-Welcomes-FBI-Secret-Service-in-Fight-Against-Crime",
    "currencies": [
    {
    "code": "USDT",
    "title": "Tether",
    "slug": "tether",
    "url": "https://cryptopanic.com/news/tether/"
    }
    ],
    "id": 19114497,
    "url": "https://cryptopanic.com/news/19114497/Tether-Welcomes-FBI-Secret-Service-in-Fight-Against-Crime",
    "created_at": "2023-12-16T22:50:00Z"
    },
    {
    "kind": "news",
    "domain": "cryptopotato.com",
    "source": {
    "title": "Feed - Cryptopotato.Com",
    "region": "en",
    "domain": "cryptopotato.com",
    "path": null
    },
    "title": "Crypto Industry Sees Over 50% Drop in Hack Volumes in 2023, TRM Labs Reports",
    "published_at": "2023-12-16T22:46:48Z",
    "slug": "Crypto-Industry-Sees-Over-50-Drop-in-Hack-Volumes-in-2023-TRM-Labs-Reports",
    "id": 19114498,
    "url": "https://cryptopanic.com/news/19114498/Crypto-Industry-Sees-Over-50-Drop-in-Hack-Volumes-in-2023-TRM-Labs-Reports",
    "created_at": "2023-12-16T22:46:48Z",
    "votes": {
    "negative": 0,
    "positive": 0,
    "important": 0,
    "liked": 0,
    "disliked": 0,
    "lol": 0,
    "toxic": 0,
    "saved": 0,
    "comments": 0
    }
    },
    {
    "kind": "news",
    "domain": "ambcrypto.com",
    "source": {
    "title": "AMBCrypto",
    "region": "en",
    "domain": "ambcrypto.com",
    "path": null
    },
    "title": "Dogecoin prices dip as BONK climbs – What about DOGE predictions?",
    "published_at": "2023-12-16T22:30:40Z",
    "slug": "Dogecoin-prices-dip-as-BONK-climbs-What-about-DOGE-predictions",
    "currencies": [
    {
    "code": "DOGE",
    "title": "Dogecoin",
    "slug": "dogecoin",
    "url": "https://cryptopanic.com/news/dogecoin/"
    },
    {
    "code": "BONK",
    "title": "Bonk",
    "slug": "bonk",
    "url": "https://cryptopanic.com/news/bonk/"
    }
    ],
    "id": 19114490,
    "url": "https://cryptopanic.com/news/19114490/Dogecoin-prices-dip-as-BONK-climbs-What-about-DOGE-predictions",
    "created_at": "2023-12-16T22:30:40Z",
    "votes": {
    "negative": 0,
    "positive": 0,
    "important": 0,
    "liked": 0,
    "disliked": 0,
    "lol": 0,
    "toxic": 0,
    "saved": 0,
    "comments": 0
    }
    },
    {
    "kind": "news",
    "domain": "cryptopolitan.com",
    "source": {
    "title": "Feed - Cryptopolitan.Com",
    "region": "en",
    "domain": "cryptopolitan.com",
    "path": null
    },
    "title": "Frustration grows among XRP investors as crypto struggles",
    "published_at": "2023-12-16T22:24:23Z",
    "slug": "Frustration-grows-among-XRP-investors-as-crypto-struggles",
    "currencies": [
    {
    "code": "XRP",
    "title": "XRP",
    "slug": "ripple",
    "url": "https://cryptopanic.com/news/ripple/"
    }
    ],
    "id": 19114486,
    "url": "https://cryptopanic.com/news/19114486/Frustration-grows-among-XRP-investors-as-crypto-struggles",
    "created_at": "2023-12-16T22:24:23Z",
    "votes": {
    "negative": 0,
    "positive": 0,
    "important": 0,
    "liked": 0,
    "disliked": 0,
    "lol": 0,
    "toxic": 0,
    "saved": 0,
    "comments": 0
    }
    },
    {
    "kind": "media",
    "domain": "youtube.com",
    "source": {
    "title": "Simply Bitcoin",
    "region": "en",
    "domain": "youtube.com",
    "path": null
    },
    "title": "FASB Jumpstarts Historic $5M Bitcoin Bull Run | Michael Saylor",
    "published_at": "2023-12-16T22:16:28Z",
    "slug": "FASB-Jumpstarts-Historic-5M-Bitcoin-Bull-Run-Michael-Saylor",
    "currencies": [
    {
    "code": "BTC",
    "title": "Bitcoin",
    "slug": "bitcoin",
    "url": "https://cryptopanic.com/news/bitcoin/"
    }
    ],
    "id": 19114492,
    "url": "https://cryptopanic.com/news/19114492/FASB-Jumpstarts-Historic-5M-Bitcoin-Bull-Run-Michael-Saylor",
    "created_at": "2023-12-16T22:16:28Z",
    "votes": {
    "negative": 0,
    "positive": 0,
    "important": 0,
    "liked": 0,
    "disliked": 0,
    "lol": 0,
    "toxic": 0,
    "saved": 0,
    "comments": 0
    }
    },
    {
    "kind": "news",
    "domain": "cryptopolitan.com",
    "source": {
    "title": "Feed - Cryptopolitan.Com",
    "region": "en",
    "domain": "cryptopolitan.com",
    "path": null
    },
    "title": "Security breach hits NFT trader, resulting in major losses",
    "published_at": "2023-12-16T22:07:40Z",
    "slug": "Security-breach-hits-NFT-trader-resulting-in-major-losses",
    "id": 19114478,
    "url": "https://cryptopanic.com/news/19114478/Security-breach-hits-NFT-trader-resulting-in-major-losses",
    "created_at": "2023-12-16T22:07:40Z",
    "votes": {
    "negative": 0,
    "positive": 0,
    "important": 0,
    "liked": 0,
    "disliked": 0,
    "lol": 0,
    "toxic": 0,
    "saved": 0,
    "comments": 0
    }
    },
    {
    "kind": "news",
    "domain": "dailycoin.com",
    "votes": {
    "negative": 0,
    "positive": 0,
    "important": 0,
    "liked": 0,
    "disliked": 0,
    "lol": 0,
    "toxic": 0,
    "saved": 1,
    "comments": 0
    },
    "source": {
    "title": "Dailycoin",
    "region": "en",
    "domain": "dailycoin.com",
    "path": null
    },
    "title": "3 Wishes for MiCA 2.0 as EU Draws Up Second Regulatory Wave",
    "published_at": "2023-12-16T22:05:00Z",
    "slug": "3-Wishes-for-MiCA-20-as-EU-Draws-Up-Second-Regulatory-Wave",
    "id": 19114477,
    "url": "https://cryptopanic.com/news/19114477/3-Wishes-for-MiCA-20-as-EU-Draws-Up-Second-Regulatory-Wave",
    "created_at": "2023-12-16T22:05:00Z"
    },
    {
    "kind": "news",
    "domain": "cryptopolitan.com",
    "source": {
    "title": "Feed - Cryptopolitan.Com",
    "region": "en",
    "domain": "cryptopolitan.com",
    "path": null
    },
    "title": "BNB chain’s game-changing recovery from 2022 security breach",
    "published_at": "2023-12-16T22:00:53Z",
    "slug": "BNB-chains-game-changing-recovery-from-2022-security-breach",
    "currencies": [
    {
    "code": "USDT",
    "title": "Tether",
    "slug": "tether",
    "url": "https://cryptopanic.com/news/tether/"
    },
    {
    "code": "BNB",
    "title": "BNB",
    "slug": "binancecoin",
    "url": "https://cryptopanic.com/news/binancecoin/"
    }
    ],
    "id": 19114479,
    "url": "https://cryptopanic.com/news/19114479/BNB-chains-game-changing-recovery-from-2022-security-breach",
    "created_at": "2023-12-16T22:00:53Z",
    "votes": {
    "negative": 0,
    "positive": 0,
    "important": 0,
    "liked": 0,
    "disliked": 0,
    "lol": 0,
    "toxic": 0,
    "saved": 0,
    "comments": 0
    }
    },
    {
    "kind": "news",
    "domain": "bitcoinist.com",
    "source": {
    "title": "Bitcoinist",
    "region": "en",
    "domain": "bitcoinist.com",
    "path": null
    },
    "title": "Shiba Inu Team Member Addresses Questions Of When Massive $1.2 Million In SHIB Will Be Burned",
    "published_at": "2023-12-16T22:00:12Z",
    "slug": "Shiba-Inu-Team-Member-Addresses-Questions-Of-When-Massive-12-Million-In-SHIB-Will-Be-Burned",
    "currencies": [
    {
    "code": "SHIB",
    "title": "Shiba Inu",
    "slug": "shiba-inu",
    "url": "https://cryptopanic.com/news/shiba-inu/"
    }
    ],
    "id": 19114476,
    "url": "https://cryptopanic.com/news/19114476/Shiba-Inu-Team-Member-Addresses-Questions-Of-When-Massive-12-Million-In-SHIB-Will-Be-Burned",
    "created_at": "2023-12-16T22:00:12Z",
    "votes": {
    "negative": 0,
    "positive": 0,
    "important": 0,
    "liked": 0,
    "disliked": 0,
    "lol": 0,
    "toxic": 0,
    "saved": 0,
    "comments": 0
    }
    },
    {
    "kind": "news",
    "domain": "theblock.co",
    "source": {
    "title": "The Block",
    "region": "en",
    "domain": "theblock.co",
    "path": null
    },
    "title": "FTX’s revised reorganization plan values crypto claims at time of bankruptcy",
    "published_at": "2023-12-16T21:56:17Z",
    "slug": "FTXs-revised-reorganization-plan-values-crypto-claims-at-time-of-bankruptcy",
    "currencies": [
    {
    "code": "FTT",
    "title": "FTX",
    "slug": "ftx-token",
    "url": "https://cryptopanic.com/news/ftx-token/"
    }
    ],
    "id": 19114473,
    "url": "https://cryptopanic.com/news/19114473/FTXs-revised-reorganization-plan-values-crypto-claims-at-time-of-bankruptcy",
    "created_at": "2023-12-16T21:56:17Z",
    "votes": {
    "negative": 0,
    "positive": 0,
    "important": 0,
    "liked": 0,
    "disliked": 0,
    "lol": 0,
    "toxic": 0,
    "saved": 0,
    "comments": 0
    }
    },
    {
    "kind": "news",
    "domain": "cryptopolitan.com",
    "votes": {
    "negative": 0,
    "positive": 1,
    "important": 0,
    "liked": 1,
    "disliked": 0,
    "lol": 0,
    "toxic": 0,
    "saved": 0,
    "comments": 1
    },
    "source": {
    "title": "Feed - Cryptopolitan.Com",
    "region": "en",
    "domain": "cryptopolitan.com",
    "path": null
    },
    "title": "Senator Elizabeth Warren faces criticism over crypto stance",
    "published_at": "2023-12-16T21:53:14Z",
    "slug": "Senator-Elizabeth-Warren-faces-criticism-over-crypto-stance",
    "id": 19114462,
    "url": "https://cryptopanic.com/news/19114462/Senator-Elizabeth-Warren-faces-criticism-over-crypto-stance",
    "created_at": "2023-12-16T21:53:14Z"
    },
    {
    "kind": "news",
    "domain": "cryptointelligence.co.uk",
    "votes": {
    "negative": 0,
    "positive": 1,
    "important": 0,
    "liked": 1,
    "disliked": 0,
    "lol": 0,
    "toxic": 0,
    "saved": 0,
    "comments": 0
    },
    "source": {
    "title": "cryptointelligence",
    "region": "en",
    "domain": "cryptointelligence.co.uk",
    "path": null
    },
    "title": "First Trust Files for Innovative Bitcoin Buffer ETF with SEC",
    "published_at": "2023-12-16T21:44:00Z",
    "slug": "First-Trust-Files-for-Innovative-Bitcoin-Buffer-ETF-with-SEC",
    "currencies": [
    {
    "code": "BTC",
    "title": "Bitcoin",
    "slug": "bitcoin",
    "url": "https://cryptopanic.com/news/bitcoin/"
    }
    ],
    "id": 19114459,
    "url": "https://cryptopanic.com/news/19114459/First-Trust-Files-for-Innovative-Bitcoin-Buffer-ETF-with-SEC",
    "created_at": "2023-12-16T21:44:00Z"
    },
    {
    "kind": "news",
    "domain": "feeds2.benzinga.com",
    "votes": {
    "negative": 0,
    "positive": 1,
    "important": 0,
    "liked": 2,
    "disliked": 0,
    "lol": 0,
    "toxic": 0,
    "saved": 0,
    "comments": 1
    },
    "source": {
    "title": "Benzinga",
    "region": "en",
    "domain": "feeds2.benzinga.com",
    "path": null
    },
    "title": "Crypto Analyst Warns Of Possible Bitcoin Downturn: 'The Next Stop Is $38K On A Sustained Break'",
    "published_at": "2023-12-16T21:00:49Z",
    "slug": "Crypto-Analyst-Warns-Of-Possible-Bitcoin-Downturn-The-Next-Stop-Is-38K-On-A-Sustained-Break",
    "currencies": [
    {
    "code": "BTC",
    "title": "Bitcoin",
    "slug": "bitcoin",
    "url": "https://cryptopanic.com/news/bitcoin/"
    }
    ],
    "id": 19114439,
    "url": "https://cryptopanic.com/news/19114439/Crypto-Analyst-Warns-Of-Possible-Bitcoin-Downturn-The-Next-Stop-Is-38K-On-A-Sustained-Break",
    "created_at": "2023-12-16T21:00:49Z"
    },
    {
    "kind": "news",
    "domain": "dailyhodl.com",
    "source": {
    "title": "The Daily Hodl",
    "region": "en",
    "domain": "dailyhodl.com",
    "path": null
    },
    "title": "Stablecoin Market Cap Flashing Positive Sign for Crypto Liquidity, According to Analytics Firm IntoTheBlock",
    "published_at": "2023-12-16T21:00:39Z",
    "slug": "Stablecoin-Market-Cap-Flashing-Positive-Sign-for-Crypto-Liquidity-According-to-Analytics-Firm-IntoTheBlock",
    "currencies": [
    {
    "code": "BTC",
    "title": "Bitcoin",
    "slug": "bitcoin",
    "url": "https://cryptopanic.com/news/bitcoin/"
    },
    {
    "code": "ETH",
    "title": "Ethereum",
    "slug": "ethereum",
    "url": "https://cryptopanic.com/news/ethereum/"
    }
    ],
    "id": 19114427,
    "url": "https://cryptopanic.com/news/19114427/Stablecoin-Market-Cap-Flashing-Positive-Sign-for-Crypto-Liquidity-According-to-Analytics-Firm-IntoTheBlock",
    "created_at": "2023-12-16T21:00:39Z",
    "votes": {
    "negative": 0,
    "positive": 0,
    "important": 0,
    "liked": 0,
    "disliked": 0,
    "lol": 0,
    "toxic": 0,
    "saved": 0,
    "comments": 0
    }
    },
    {
    "kind": "news",
    "domain": "ambcrypto.com",
    "votes": {
    "negative": 1,
    "positive": 0,
    "important": 0,
    "liked": 0,
    "disliked": 0,
    "lol": 1,
    "toxic": 0,
    "saved": 0,
    "comments": 2
    },
    "source": {
    "title": "AMBCrypto",
    "region": "en",
    "domain": "ambcrypto.com",
    "path": null
    },
    "title": "BONK falls by 20% – Is the bull run over?",
    "published_at": "2023-12-16T20:30:36Z",
    "slug": "BONK-falls-by-20-Is-the-bull-run-over",
    "currencies": [
    {
    "code": "BONK",
    "title": "Bonk",
    "slug": "bonk",
    "url": "https://cryptopanic.com/news/bonk/"
    }
    ],
    "id": 19114408,
    "url": "https://cryptopanic.com/news/19114408/BONK-falls-by-20-Is-the-bull-run-over",
    "created_at": "2023-12-16T20:30:36Z"
    },
    {
    "kind": "news",
    "domain": "cryptopolitan.com",
    "source": {
    "title": "Feed - Cryptopolitan.Com",
    "region": "en",
    "domain": "cryptopolitan.com",
    "path": null
    },
    "title": "States Sound the Alarm on Deepfake Election Disruption Ahead of 2024",
    "published_at": "2023-12-16T20:16:21Z",
    "slug": "States-Sound-the-Alarm-on-Deepfake-Election-Disruption-Ahead-of-2024",
    "id": 19114398,
    "url": "https://cryptopanic.com/news/19114398/States-Sound-the-Alarm-on-Deepfake-Election-Disruption-Ahead-of-2024",
    "created_at": "2023-12-16T20:16:21Z",
    "votes": {
    "negative": 0,
    "positive": 0,
    "important": 0,
    "liked": 0,
    "disliked": 0,
    "lol": 0,
    "toxic": 0,
    "saved": 0,
    "comments": 0
    }
    },
    {
    "kind": "media",
    "domain": "youtube.com",
    "source": {
    "title": "BTC Sessions",
    "region": "en",
    "domain": "youtube.com",
    "path": null
    },
    "title": " Live: Exploring Bitcoin & Self-Sovereignty with Graham Wardle & BTC Sessions",
    "published_at": "2023-12-16T20:10:00Z",
    "slug": "Live-Exploring-Bitcoin-Self-Sovereignty-with-Graham-Wardle-BTC-Sessions",
    "currencies": [
    {
    "code": "BTC",
    "title": "Bitcoin",
    "slug": "bitcoin",
    "url": "https://cryptopanic.com/news/bitcoin/"
    }
    ],
    "id": 19113421,
    "url": "https://cryptopanic.com/news/19113421/Live-Exploring-Bitcoin-Self-Sovereignty-with-Graham-Wardle-BTC-Sessions",
    "created_at": "2023-12-16T20:10:00Z",
    "votes": {
    "negative": 0,
    "positive": 0,
    "important": 0,
    "liked": 0,
    "disliked": 0,
    "lol": 0,
    "toxic": 0,
    "saved": 0,
    "comments": 0
    }
    },
    {
    "kind": "news",
    "domain": "cryptopolitan.com",
    "source": {
    "title": "Feed - Cryptopolitan.Com",
    "region": "en",
    "domain": "cryptopolitan.com",
    "path": null
    },
    "title": "Scholars and Innovators Collaborate to Transform Quranic Understanding with AI",
    "published_at": "2023-12-16T20:06:00Z",
    "slug": "Scholars-and-Innovators-Collaborate-to-Transform-Quranic-Understanding-with-AI",
    "id": 19114388,
    "url": "https://cryptopanic.com/news/19114388/Scholars-and-Innovators-Collaborate-to-Transform-Quranic-Understanding-with-AI",
    "created_at": "2023-12-16T20:06:00Z",
    "votes": {
    "negative": 0,
    "positive": 0,
    "important": 0,
    "liked": 0,
    "disliked": 0,
    "lol": 0,
    "toxic": 0,
    "saved": 0,
    "comments": 0
    }
    }
    ]
    }
